{
 "address": "1E8Z8sk3cGeWdQumBaYEh6LraqC2BRnutV",
 "cert_auth_type": "web",
 "cert_sign": "G7WQDcCYzPAqdtjCrYcp2YXeT6B00MTasUkc8bPC70Et+qGW13aW1wBT8BVtexxcpDdaU0H5vx7kZdhP04AvHVY=",
 "cert_user_id": "lavaphox@zeroid.bit",
 "files": {
  "data.json": {
   "sha512": "fb80a3bc5582c13c1c6c4e445682b281a45196a57118d171a4b558bb64d1d959",
   "size": 193
  }
 },
 "inner_path": "data/users/13SFxfKtzbvyUWADdNZs3oKh1YSJwmohWm/content.json",
 "modified": 1547078759,
 "signs": {
  "13SFxfKtzbvyUWADdNZs3oKh1YSJwmohWm": "HH84WME82JXZA6xJ7NtV+wZZj190ZXWylwDBbLb9jukeEkl375d4fIljY7EEw1LZJEWa6jb+DkmHMvCnCA/zbPE="
 }
}